{
  "env": {
    "name": "prod"
  },
  "apiServer": {
    "apiURL": "http://ec2-13-234-124-250.ap-south-1.compute.amazonaws.com/api"
  },
  "shortcutConfigSetting": {
    "shortcutConfigFilePath": "./assets/shortcut/config.json"
  },
  "translations": {
    "prefix": "./assets/i18n"
  }
}
