<svg xmlns="http://www.w3.org/2000/svg" width="160" height="185" viewBox="0 0 160 185">
  <g id="Group_4415" data-name="Group 4415" transform="translate(-128 -448)">
    <rect id="Rectangle_700" data-name="Rectangle 700" width="160" height="185" rx="10" transform="translate(128 448)" fill="#fff"/>
    <g id="Group_4414" data-name="Group 4414" transform="translate(449.509 130.733)" opacity="0.502">
      <path id="Rectangle_270-2" data-name="Rectangle 270-2" d="M-171.509,317.267a10,10,0,0,1,10,10v165a10,10,0,0,1-10,10h-140a10,10,0,0,1-10-10Z" fill="#f8f8f7"/>
    </g>
  </g>
</svg>
